{
    "name": "adamnash.nashbits",
    "rootNamespace": "NashBits",
    "references": [
        "Unity.InputSystem"
    ],
    "includePlatforms": [],
    "excludePlatforms": [],
    "allowUnsafeCode": false,
    "overrideReferences": false,
    "precompiledReferences": [],
    "autoReferenced": true,
    "defineConstraints": [],
    "versionDefines": [],
    "noEngineReferences": false
}